<?xml version="1.0" encoding="UTF-8" standalone="no"?>
<!DOCTYPE svg  PUBLIC '-//W3C//DTD SVG 1.1//EN'  'http://www.w3.org/Graphics/SVG/1.1/DTD/svg11.dtd'>
<svg xmlns="http://www.w3.org/2000/svg" version="1.1">
<defs>
<font id="Interstate-Bold" horiz-adv-x="800">
<font-face cap-height="700" underline-position="-133" underline-thickness="20" x-height="525" unicode-range="U+0020-00FE" ascent="800" stemv="139" descent="-200" font-family="Interstate" bbox="-56 -193 979 905" panose-1="0 0 0 0 0 0 0 0 0 0" font-weight="700" units-per-em="1000" stemh="130"/>
<missing-glyph/>
<glyph glyph-name="space" unicode=" " horiz-adv-x="290"/>
<glyph d="M240 412l-23 -192h-94l-23 192v288h140v-288zM255 74c0 -46 -39 -85 -85 -85s-85 39 -85 85s39 85 85 85s85 -39 85 -85z" glyph-name="exclam" unicode="!" horiz-adv-x="340"/>
<glyph d="M471 700l-35 -327h-95l-35 327h165zM222 700l-35 -327h-95l-35 327h165z" glyph-name="quotedbl" unicode='&quot;' horiz-adv-x="528"/>
<glyph d="M690 140h-120v-140h-122v140h-156v-140h-122v140h-120v115h120v190h-120v115h120v140h122v-140h156v140h122v-140h120v-115h-120v-190h120v-115zM448 255v190h-156v-190h156z" glyph-name="numbersign" unicode="#" horiz-adv-x="740"/>
<glyph d="M600 212c0 -114 -61 -192 -198 -213v-99h-140v99c-90 14 -166 58 -209 122l101 90c49 -57 112 -80 179 -80c83 0 122 18 122 71c0 45 -24 65 -156 95c-129 30 -219 71 -219 209c0 105 77 174 182 194v100h140v-101c74 -14 132 -50 183 -103l-101 -98 c-45 46 -95 72 -159 72c-75 0 -100 -27 -100 -58c0 -44 30 -58 141 -84s234 -64 234 -216z" glyph-name="dollar" unicode="$" horiz-adv-x="655"/>
<glyph d="M961 207c0 -133 -79 -218 -186 -218s-183 83 -183 216c0 135 76 219 185 219c111 0 184 -84 184 -217zM774 700l-429 -700h-121l429 700h121zM407 494c0 -133 -79 -218 -186 -218s-183 83 -183 216c0 135 76 219 185 219c111 0 184 -84 184 -217zM849 205 c0 83 -25 126 -73 126s-72 -41 -72 -124s25 -126 73 -126s72 48 72 124zM295 492c0 83 -25 126 -73 126s-72 -41 -72 -124s25 -126 73 -126s72 48 72 124z" glyph-name="percent" unicode="%" horiz-adv-x="999"/>
<glyph d="M688 0h-160l-53 57c-55 -45 -122 -68 -204 -68c-143 0 -230 60 -230 186c0 98 54 157 143 201l-18 20c-37 41 -61 86 -61 142c0 114 90 173 208 173c86 0 142 -26 209 -73l-67 -101c-46 35 -96 50 -146 50c-41 0 -66 -17 -66 -46c0 -30 15 -50 37 -76l193 -220 c16 32 32 70 49 116l113 -36c-22 -68 -48 -127 -79 -175zM395 144l-137 150c-55 -29 -77 -65 -77 -107c0 -45 36 -74 106 -74c43 0 79 10 108 31z" glyph-name="ampersand" unicode="&amp;" horiz-adv-x="700"/>
<glyph d="M327 -48l-90 -62c-96 106 -173 224 -173 410c0 187 71 303 173 416l90 -62c-71 -92 -119 -196 -119 -349c0 -157 47 -260 119 -353z" glyph-name="parenleft" unicode="(" horiz-adv-x="370"/>
<glyph d="M306 306c0 -187 -71 -303 -173 -416l-90 62c71 92 119 196 119 349c0 157 -47 260 -119 353l90 62c96 -106 173 -224 173 -410z" glyph-name="parenright" unicode=")" horiz-adv-x="370"/>
<glyph d="M467 415l-53 -91l-122 82l11 -146h-106l10 148l-122 -82l-52 90l141 64l-141 65l52 91l122 -83l-10 147h106l-11 -146l122 83l53 -91l-144 -65z" glyph-name="asterisk" unicode="*" horiz-adv-x="500"/>
<glyph d="M558 279h-183v-190h-137v190h-183v130h183v190h137v-190h183v-130z" glyph-name="plus" unicode="+" horiz-adv-x="613"/>
<glyph d="M228 169l-84 -295h-94l15 295h163z" glyph-name="comma" unicode="," horiz-adv-x="272"/>
<glyph d="M347 294h-287v138h287v-138z" glyph-name="hyphen" unicode="-" horiz-adv-x="407"/>
<glyph d="M230 83c0 -51 -43 -94 -94 -94s-94 43 -94 94s43 94 94 94s94 -43 94 -94z" glyph-name="period" unicode="." horiz-adv-x="272"/>
<glyph d="M466 790l-326 -880h-136l326 880h136z" glyph-name="slash" unicode="/" horiz-adv-x="470"/>
<glyph d="M638 352c0 -213 -104 -363 -295 -363s-293 148 -293 361s103 361 294 361s294 -146 294 -359zM496 350c0 125 -46 224 -153 224s-151 -97 -151 -222s45 -226 152 -226s152 99 152 224z" glyph-name="zero" unicode="0" horiz-adv-x="688"/>
<glyph d="M298 0h-139v506h-120v103c78 4 129 33 143 91h116v-700z" glyph-name="one" unicode="1" horiz-adv-x="385"/>
<glyph d="M611 0h-548c4 240 151 344 322 419c60 26 79 54 79 84c0 36 -31 71 -115 71c-83 0 -150 -37 -199 -84l-90 105c74 75 173 116 284 116c166 0 260 -67 260 -201c0 -113 -61 -162 -180 -217c-124 -57 -172 -104 -185 -158h372v-135z" glyph-name="two" unicode="2" horiz-adv-x="683"/>
<glyph d="M588 217c0 -151 -116 -228 -290 -228c-105 0 -199 41 -277 134l106 86c58 -61 113 -83 184 -83c92 0 135 33 135 89c0 54 -37 80 -103 80h-83v137h75c58 0 82 25 82 71c0 36 -29 71 -117 71c-54 0 -98 -19 -137 -59l-102 93c67 70 137 103 241 103 c143 0 257 -66 257 -198c0 -76 -40 -122 -81 -143c45 -17 110 -61 110 -153z" glyph-name="three" unicode="3" horiz-adv-x="645"/>
<glyph d="M654 143h-92v-143h-135v143h-383v126l371 431h147v-427h92v-130zM430 540c-13 -18 -39 -52 -62 -79l-100 -117c-22 -26 -51 -58 -66 -73c24 0 99 2 139 2h86v114c0 40 3 127 3 153z" glyph-name="four" unicode="4" horiz-adv-x="695"/>
<glyph d="M616 244c0 -168 -120 -255 -292 -255c-101 0 -185 20 -273 75l68 119c65 -37 134 -59 205 -59c95 0 150 40 150 115c0 73 -53 104 -119 104c-63 0 -105 -19 -138 -42l-133 49l24 350h466v-135h-337l-8 -121c39 21 81 32 147 32c157 0 240 -100 240 -232z" glyph-name="five" unicode="5" horiz-adv-x="668"/>
<glyph d="M620 229c0 -156 -130 -240 -295 -240c-156 0 -278 87 -278 283c0 184 108 439 471 439v-136c-162 0 -265 -57 -305 -164c45 30 89 44 160 44c139 0 247 -71 247 -226zM478 224c0 71 -52 104 -140 104c-95 0 -146 -32 -146 -105c0 -65 48 -104 139 -104 c93 0 147 40 147 105z" glyph-name="six" unicode="6" horiz-adv-x="663"/>
<glyph d="M569 565c-142 -139 -232 -323 -232 -565h-143c0 227 76 418 206 567h-356v133h525v-135z" glyph-name="seven" unicode="7" horiz-adv-x="631"/>
<glyph d="M644 217c0 -141 -112 -228 -293 -228s-293 83 -293 221c0 97 58 147 111 170c-50 27 -81 71 -81 123c0 138 116 208 263 208c138 0 263 -65 263 -202c0 -50 -27 -99 -81 -129c54 -25 111 -74 111 -163zM474 506c0 45 -31 84 -123 84c-87 0 -123 -38 -123 -83 s42 -80 123 -80c86 0 123 33 123 79zM504 212c0 64 -47 100 -153 100c-105 0 -153 -39 -153 -99c0 -64 64 -101 153 -101c96 0 153 36 153 100z" glyph-name="eight" unicode="8" horiz-adv-x="702"/>
<glyph d="M616 428c0 -184 -108 -439 -471 -439v136c162 0 265 57 305 164c-45 -30 -89 -44 -160 -44c-139 0 -247 71 -247 226c0 156 130 240 295 240c156 0 278 -87 278 -283zM471 477c0 65 -48 104 -139 104c-93 0 -147 -40 -147 -105c0 -71 52 -104 140 -104 c95 0 146 32 146 105z" glyph-name="nine" unicode="9" horiz-adv-x="663"/>
<glyph d="M230 442c0 -51 -43 -94 -94 -94s-94 43 -94 94s43 94 94 94s94 -43 94 -94zM230 83c0 -51 -43 -94 -94 -94s-94 43 -94 94s43 94 94 94s94 -43 94 -94z" glyph-name="colon" unicode=":" horiz-adv-x="272"/>
<glyph d="M230 442c0 -51 -43 -94 -94 -94s-94 43 -94 94s43 94 94 94s94 -43 94 -94zM221 169l-84 -295h-94l15 295h163z" glyph-name="semicolon" unicode=";" horiz-adv-x="272"/>
<glyph d="M388 28l-331 269v94l331 269v-172l-187 -143l187 -144v-173z" glyph-name="less" unicode="&lt;" horiz-adv-x="450"/>
<glyph d="M533 398h-453v129h453v-129zM533 161h-453v129h453v-129z" glyph-name="equal" unicode="=" horiz-adv-x="613"/>
<glyph d="M393 297l-331 -269v172l187 143l-187 144v173l331 -269v-94z" glyph-name="greater" unicode="&gt;" horiz-adv-x="450"/>
<glyph d="M546 507c0 -93 -53 -142 -101 -165c-84 -40 -105 -63 -108 -122h-137c0 95 28 154 141 206c50 23 65 39 65 75c0 46 -34 73 -119 73c-76 0 -130 -36 -175 -84l-90 105c61 64 148 116 265 116c153 0 259 -65 259 -204zM354 74c0 -46 -39 -85 -85 -85s-85 39 -85 85 s39 85 85 85s85 -39 85 -85z" glyph-name="question" unicode="?" horiz-adv-x="584"/>
<glyph d="M779 360c0 -149 -63 -206 -151 -206c-61 0 -92 21 -117 55c-31 -33 -66 -56 -128 -56c-72 0 -144 44 -144 138c0 85 69 128 157 128c38 0 57 -8 78 -19v25c0 30 -19 54 -59 54c-47 0 -72 -8 -107 -26l-37 66c44 26 82 39 144 39c93 0 157 -48 157 -135v-143 c0 -38 17 -67 62 -67c62 0 87 54 87 148c0 159 -129 293 -303 293c-175 0 -303 -129 -303 -303c0 -175 128 -304 303 -304c45 0 85 7 130 29l24 -53c-57 -26 -97 -34 -154 -34c-209 0 -361 152 -361 361s152 361 361 361c213 0 361 -161 361 -351zM474 275v51 c-19 11 -37 18 -75 18c-41 0 -63 -19 -63 -53c0 -29 17 -55 63 -55c35 0 63 18 75 39z" glyph-name="at" unicode="@" horiz-adv-x="836"/>
<glyph d="M710 0h-154l-55 156h-256l-55 -156h-150l268 700h136zM453 289l-45 127c-14 41 -28 83 -35 109c-7 -26 -21 -68 -35 -109l-45 -127h160z" glyph-name="A" unicode="A" horiz-adv-x="750"/>
<glyph d="M657 226c0 -147 -99 -226 -249 -226h-318v700h321c136 0 222 -65 222 -185c0 -60 -28 -108 -74 -136c56 -25 98 -76 98 -153zM491 504c0 44 -25 67 -86 67h-178v-133h185c58 0 79 27 79 66zM513 224c0 60 -32 90 -100 90h-186v-181h186c68 0 100 36 100 91z" glyph-name="B" unicode="B" horiz-adv-x="710"/>
<glyph d="M620 556l-130 -60c-25 48 -65 76 -128 76c-105 0 -165 -92 -165 -222c0 -126 61 -222 166 -222c63 0 100 27 137 89l118 -70c-48 -99 -132 -158 -259 -158c-183 0 -306 140 -306 361c0 213 128 361 311 361c132 0 212 -64 256 -155z" glyph-name="C" unicode="C" horiz-adv-x="670"/>
<glyph d="M657 350c0 -246 -178 -350 -358 -350h-209v700h219c200 0 348 -94 348 -350zM513 350c0 143 -61 214 -209 214h-74v-428h69c147 0 214 86 214 214z" glyph-name="D" unicode="D" horiz-adv-x="707"/>
<glyph d="M591 0h-501v700h486v-137h-346v-121h201v-136h-201v-169h361v-137z" glyph-name="E" unicode="E" horiz-adv-x="650"/>
<glyph d="M591 563h-361v-132h211v-136h-211v-295h-140v700h501v-137z" glyph-name="F" unicode="F" horiz-adv-x="625"/>
<glyph d="M640 271c0 -180 -119 -282 -281 -282c-183 0 -306 140 -306 361c0 213 128 361 311 361c143 0 219 -67 265 -175l-133 -55c-26 52 -58 91 -134 91c-105 0 -165 -92 -165 -222c0 -129 61 -224 166 -224c96 0 129 45 137 106h-111v131h251v-92z" glyph-name="G" unicode="G" horiz-adv-x="698"/>
<glyph d="M657 0h-140v294h-287v-294h-140v700h140v-268h287v268h140v-700z" glyph-name="H" unicode="H" horiz-adv-x="747"/>
<glyph d="M240 0h-140v700h140v-700z" glyph-name="I" unicode="I" horiz-adv-x="340"/>
<glyph d="M565 292c0 -183 -82 -303 -265 -303c-140 0 -233 84 -268 207l137 37c27 -71 63 -105 131 -105c86 0 125 55 125 160v412h140v-408z" glyph-name="J" unicode="J" horiz-adv-x="650"/>
<glyph d="M700 0h-168l-190 338l-112 -132v-206h-140v700h140v-199c0 -26 -1 -89 -2 -111c10 16 36 48 55 71l196 239h169l-205 -242z" glyph-name="K" unicode="K" horiz-adv-x="720"/>
<glyph d="M581 0h-491v700h140v-562h351v-138z" glyph-name="L" unicode="L" horiz-adv-x="620"/>
<glyph d="M745 0h-140v257c0 38 2 127 2 154c-10 -26 -31 -76 -49 -116l-142 -311l-142 311c-18 40 -39 90 -49 116c0 -27 2 -116 2 -154v-257h-137v700h135l146 -317c18 -39 39 -92 48 -117c9 26 29 77 47 117l141 317h138v-700z" glyph-name="M" unicode="M" horiz-adv-x="835"/>
<glyph d="M657 0h-125l-257 382c-17 26 -40 61 -49 79c0 -26 2 -114 2 -153v-308h-138v700h134l248 -370c17 -26 40 -61 49 -79c0 26 -2 114 -2 153v296h138v-700z" glyph-name="N" unicode="N" horiz-adv-x="747"/>
<glyph d="M661 350c0 -213 -113 -361 -304 -361s-304 148 -304 361s113 361 304 361s304 -148 304 -361zM517 350c0 125 -47 222 -160 222s-160 -97 -160 -222s47 -222 160 -222s160 97 160 222z" glyph-name="O" unicode="O" horiz-adv-x="714"/>
<glyph d="M637 478c0 -162 -108 -230 -253 -230h-154v-248h-140v700h306c132 0 241 -73 241 -222zM493 475c0 61 -40 89 -102 89h-161v-180h163c65 0 100 30 100 91z" glyph-name="P" unicode="P" horiz-adv-x="680"/>
<glyph d="M661 350c0 -120 -34 -206 -95 -269l52 -76l-107 -70l-50 73c-32 -13 -65 -19 -104 -19c-191 0 -304 148 -304 361s113 361 304 361s304 -148 304 -361zM517 350c0 125 -47 222 -160 222s-160 -97 -160 -222c0 -128 50 -229 163 -229c8 0 16 1 23 2l-47 70l107 70l45 -67 c22 39 29 95 29 154z" glyph-name="Q" unicode="Q" horiz-adv-x="714"/>
<glyph d="M657 0h-161l-125 252h-141v-252h-140v700h326c132 0 241 -73 241 -222c0 -105 -45 -171 -134 -206zM513 475c0 63 -38 89 -100 89h-183v-180h183c65 0 100 30 100 91z" glyph-name="R" unicode="R" horiz-adv-x="714"/>
<glyph d="M603 212c0 -133 -84 -223 -275 -223c-117 0 -219 49 -272 127l101 90c49 -57 112 -80 179 -80c83 0 122 23 122 76c0 45 -24 65 -156 95c-129 30 -219 71 -219 209c0 127 112 205 250 205c109 0 189 -41 255 -110l-101 -98c-45 46 -95 72 -159 72 c-75 0 -100 -32 -100 -63c0 -44 30 -58 141 -84s234 -64 234 -216z" glyph-name="S" unicode="S" horiz-adv-x="661"/>
<glyph d="M587 562h-201v-562h-140v562h-201v138h542v-138z" glyph-name="T" unicode="T" horiz-adv-x="632"/>
<glyph d="M652 309c0 -203 -106 -320 -284 -320c-169 0 -283 114 -283 318v393h140v-391c0 -112 54 -183 143 -183s144 69 144 181v393h140v-391z" glyph-name="U" unicode="U" horiz-adv-x="737"/>
<glyph d="M674 700l-249 -700h-136l-249 700h155l132 -405c13 -39 27 -90 33 -115c6 26 19 74 32 115l129 405h153z" glyph-name="V" unicode="V" horiz-adv-x="714"/>
<glyph d="M831 700l-146 -700h-137l-86 360c-10 42 -20 94 -24 120c-3 -26 -13 -79 -23 -120l-88 -360h-131l-146 700h146l61 -341c6 -34 14 -86 17 -115c5 29 16 81 24 115l82 341h122l83 -341c8 -34 19 -86 24 -115c3 29 11 82 17 115l61 341h144z" glyph-name="W" unicode="W" horiz-adv-x="881"/>
<glyph d="M657 0h-167l-63 106c-25 42 -63 111 -76 137c-12 -26 -50 -93 -76 -137l-63 -106h-167l222 358l-212 342h167l53 -90c25 -42 63 -111 76 -137c13 26 50 93 76 137l53 90h167l-213 -342z" glyph-name="X" unicode="X" horiz-adv-x="702"/>
<glyph d="M692 700l-265 -423v-277h-140v274l-265 426h161l99 -166c25 -42 63 -111 76 -137c13 26 50 93 76 137l99 166h159z" glyph-name="Y" unicode="Y" horiz-adv-x="714"/>
<glyph d="M620 0h-552v124l301 359c22 27 62 73 80 91c-28 -1 -101 -2 -142 -2h-219v128h527v-124l-298 -359c-22 -27 -62 -73 -80 -91c28 1 101 2 142 2h241v-128z" glyph-name="Z" unicode="Z" horiz-adv-x="688"/>
<glyph d="M352 -110h-257v810h257v-110h-122v-590h122v-110z" glyph-name="bracketleft" unicode="[" horiz-adv-x="415"/>
<glyph d="M466 -90h-136l-326 880h136z" glyph-name="backslash" unicode="\" horiz-adv-x="470"/>
<glyph d="M320 -110h-257v110h122v590h-122v110h257v-810z" glyph-name="bracketright" unicode="]" horiz-adv-x="415"/>
<glyph d="M531 382h-142l-101 186l-101 -186h-140l187 318h110z" glyph-name="asciicircum" unicode="^" horiz-adv-x="578"/>
<glyph d="M500 -187h-500v115h500v-115z" glyph-name="underscore" unicode="_" horiz-adv-x="500"/>
<glyph d="M494 0h-138v35c-25 -26 -69 -46 -118 -46c-98 0 -196 60 -196 187c0 116 94 174 213 174c48 0 79 -10 101 -21v26c0 37 -25 67 -75 67c-63 0 -96 -9 -144 -35l-53 96c61 35 112 53 197 53c127 0 213 -66 213 -184v-352zM356 154v66c-24 15 -47 22 -96 22 c-52 0 -80 -24 -80 -66c0 -37 21 -70 80 -70c45 0 81 23 96 48z" glyph-name="a" unicode="a" horiz-adv-x="556"/>
<glyph d="M520 256c0 -157 -74 -267 -204 -267c-46 0 -86 18 -111 41v-30h-138v660l138 69v-237c26 23 61 44 111 44c112 0 204 -84 204 -280zM380 253c0 108 -36 153 -90 153c-43 0 -65 -18 -85 -44v-198c21 -29 53 -45 93 -45c53 0 82 46 82 134z" glyph-name="b" unicode="b" horiz-adv-x="562"/>
<glyph d="M501 106c-51 -68 -111 -117 -215 -117c-137 0 -246 112 -246 273s106 274 252 274c100 0 164 -49 208 -116l-91 -92c-31 44 -64 75 -120 75c-66 0 -109 -55 -109 -141c0 -84 43 -140 109 -140c54 0 88 24 124 67z" glyph-name="c" unicode="c" horiz-adv-x="537"/>
<glyph d="M493 0h-138v33c-26 -23 -61 -44 -111 -44c-112 0 -204 84 -204 280c0 157 74 267 204 267c46 0 86 -18 111 -41v165l138 69v-729zM355 163v198c-21 29 -53 45 -93 45c-53 0 -82 -46 -82 -134c0 -108 36 -153 90 -153c43 0 65 18 85 44z" glyph-name="d" unicode="d" horiz-adv-x="562"/>
<glyph d="M495 262c0 -20 -1 -34 -2 -44h-314c5 -72 58 -99 108 -99c38 0 70 14 90 37l98 -82c-42 -54 -118 -85 -188 -85c-151 0 -247 107 -247 273c0 161 101 274 234 274c140 0 221 -124 221 -274zM361 322c-4 47 -32 94 -94 94c-50 0 -81 -41 -86 -94h180z" glyph-name="e" unicode="e" horiz-adv-x="538"/>
<glyph d="M338 600c-14 7 -28 11 -48 11c-41 0 -51 -13 -51 -42v-44h89v-130h-89v-395h-138v395h-63v130h63v63c0 98 54 138 150 138c34 0 63 -5 87 -15v-111z" glyph-name="f" unicode="f" horiz-adv-x="370"/>
<glyph d="M493 89c0 -173 -42 -262 -226 -282l-49 104c108 15 137 41 137 122c-26 -23 -61 -44 -111 -44c-112 0 -204 84 -204 280c0 157 74 267 204 267c46 0 86 -18 111 -41v30h138v-436zM355 163v198c-21 29 -53 45 -93 45c-53 0 -82 -46 -82 -134c0 -108 36 -153 90 -153 c43 0 65 18 85 44z" glyph-name="g" unicode="g" horiz-adv-x="562"/>
<glyph d="M522 0h-138v284c0 94 -32 122 -89 122s-90 -28 -90 -119v-287h-138v660l138 69v-239c24 25 68 46 123 46c134 0 194 -92 194 -240v-296z" glyph-name="h" unicode="h" horiz-adv-x="584"/>
<glyph d="M220 647c0 -43 -36 -79 -79 -79s-79 36 -79 79s36 79 79 79s79 -36 79 -79zM210 0h-138v525h138v-525z" glyph-name="i" unicode="i" horiz-adv-x="282"/>
<glyph d="M220 647c0 -43 -36 -79 -79 -79s-79 36 -79 79s36 79 79 79s79 -36 79 -79zM210 39c0 -147 -45 -206 -206 -232l-48 106c95 18 116 38 116 120v492h138v-486z" glyph-name="j" unicode="j" horiz-adv-x="282"/>
<glyph d="M523 0h-151l-100 242l-67 -83v-159h-138v660l138 69v-279c0 -32 -1 -86 -2 -112c14 21 38 54 56 77l85 110h163l-135 -167z" glyph-name="k" unicode="k" horiz-adv-x="551"/>
<glyph d="M210 0h-138v660l138 69v-729z" glyph-name="l" unicode="l" horiz-adv-x="282"/>
<glyph d="M819 0h-138v284c0 94 -27 122 -84 122s-85 -28 -85 -119v-287h-138v284c0 94 -27 122 -84 122s-85 -28 -85 -119v-287h-138v525h138v-35c24 25 60 46 115 46c67 0 106 -19 145 -67c36 37 80 67 167 67c134 0 187 -92 187 -240v-296z" glyph-name="m" unicode="m" horiz-adv-x="881"/>
<glyph d="M522 0h-138v284c0 94 -32 122 -89 122s-90 -28 -90 -119v-287h-138v525h138v-35c24 25 68 46 123 46c134 0 194 -92 194 -240v-296z" glyph-name="n" unicode="n" horiz-adv-x="584"/>
<glyph d="M515 262c0 -161 -101 -273 -238 -273s-237 112 -237 273s100 274 237 274s238 -113 238 -274zM375 262c0 80 -32 141 -98 141s-97 -60 -97 -141s31 -140 97 -140s98 67 98 140z" glyph-name="o" unicode="o" horiz-adv-x="555"/>
<glyph d="M520 256c0 -157 -74 -267 -204 -267c-46 0 -86 18 -111 41v-154l-138 -69v718h138v-33c26 23 61 44 111 44c112 0 204 -84 204 -280zM380 253c0 108 -36 153 -90 153c-43 0 -65 -18 -85 -44v-198c21 -29 53 -45 93 -45c53 0 82 46 82 134z" glyph-name="p" unicode="p" horiz-adv-x="562"/>
<glyph d="M493 -124l-138 -69v226c-26 -23 -61 -44 -111 -44c-112 0 -204 84 -204 280c0 157 74 267 204 267c46 0 86 -18 111 -41v30h138v-649zM355 163v198c-21 29 -53 45 -93 45c-53 0 -82 -46 -82 -134c0 -108 36 -153 90 -153c43 0 65 18 85 44z" glyph-name="q" unicode="q" horiz-adv-x="562"/>
<glyph d="M410 499l-36 -135c-22 20 -49 34 -80 34c-54 0 -89 -23 -89 -114v-284h-138v525h138v-35c24 25 59 46 108 46c45 0 79 -18 97 -37z" glyph-name="r" unicode="r" horiz-adv-x="428"/>
<glyph d="M482 153c0 -121 -96 -164 -214 -164c-83 0 -164 24 -220 61l46 105c56 -31 115 -48 182 -48c54 0 70 13 70 40c0 24 -19 36 -77 53c-126 38 -207 69 -207 180c0 109 87 156 210 156c66 0 138 -20 194 -51l-44 -109c-52 28 -109 42 -153 42c-56 0 -71 -11 -71 -34 c0 -22 16 -31 109 -61c94 -31 175 -65 175 -170z" glyph-name="s" unicode="s" horiz-adv-x="537"/>
<glyph d="M380 161l-20 -140c-23 -18 -64 -32 -107 -32c-85 0 -140 66 -140 158v248h-88v130h88v135l138 69v-204h126v-130h-126v-211c0 -50 18 -63 51 -63c25 0 44 11 78 40z" glyph-name="t" unicode="t" horiz-adv-x="442"/>
<glyph d="M517 0h-138v35c-24 -25 -68 -46 -123 -46c-134 0 -194 92 -194 240v296h138v-284c0 -94 32 -122 89 -122s90 28 90 119v287h138v-525z" glyph-name="u" unicode="u" horiz-adv-x="584"/>
<glyph d="M545 525l-189 -525h-142l-189 525h152l77 -243c13 -40 27 -90 33 -115c6 26 20 74 33 115l77 243h148z" glyph-name="v" unicode="v" horiz-adv-x="570"/>
<glyph d="M717 525l-151 -525h-115l-52 206c-10 41 -24 99 -28 124c-4 -25 -18 -83 -28 -124l-52 -206h-115l-151 525h140l46 -194c9 -40 21 -95 25 -120c4 26 17 79 28 120l52 194h114l52 -194c11 -41 24 -94 28 -120c4 25 16 80 25 120l46 194h136z" glyph-name="w" unicode="w" horiz-adv-x="742"/>
<glyph d="M552 0h-164l-53 87c-19 31 -38 65 -48 85c-9 -20 -30 -55 -48 -85l-53 -87h-164l186 284l-158 241h164l25 -43c19 -31 38 -65 48 -85c10 20 30 54 48 85l25 43h164l-158 -241z" glyph-name="x" unicode="x" horiz-adv-x="574"/>
<glyph d="M565 525l-270 -710h-136l70 185l-204 525h152l86 -253c14 -40 28 -90 34 -115c6 26 20 74 34 115l86 253h148z" glyph-name="y" unicode="y" horiz-adv-x="590"/>
<glyph d="M494 0h-434v100l191 227c21 25 52 59 66 75c-19 -1 -60 -2 -86 -2h-154v125h417v-100l-185 -227c-21 -26 -51 -59 -65 -75c19 1 60 2 86 2h164v-125z" glyph-name="z" unicode="z" horiz-adv-x="554"/>
<glyph d="M407 -110c-184 0 -265 72 -265 211v71c0 48 -21 69 -60 69h-22v112h22c39 0 60 21 60 69v72c0 139 81 211 265 211v-91c-100 -10 -125 -48 -125 -130v-31c0 -108 -30 -137 -95 -156c65 -19 95 -48 95 -156v-30c0 -82 25 -120 125 -130v-91z" glyph-name="braceleft" unicode="{" horiz-adv-x="460"/>
<glyph d="M205 -185h-125v985h125v-985z" glyph-name="bar" unicode="|" horiz-adv-x="285"/>
<glyph d="M400 242h-22c-39 0 -60 -21 -60 -69v-72c0 -139 -81 -211 -265 -211v91c100 10 125 48 125 130v31c0 108 30 137 95 156c-65 19 -95 48 -95 156v30c0 82 -25 120 -125 130v91c184 0 265 -72 265 -211v-71c0 -48 21 -69 60 -69h22v-112z" glyph-name="braceright" unicode="}" horiz-adv-x="460"/>
<glyph d="M520 424c-36 -92 -79 -151 -153 -151c-41 0 -63 11 -96 34c-38 26 -59 40 -78 40c-28 0 -37 -11 -69 -71l-82 42c36 92 79 151 153 151c41 0 63 -11 96 -34c43 -29 59 -40 78 -40c28 0 37 11 69 71z" glyph-name="asciitilde" unicode="~" horiz-adv-x="562"/>
<glyph d="M255 626c0 -46 -39 -85 -85 -85s-85 39 -85 85s39 85 85 85s85 -39 85 -85zM240 0h-140v288l23 192h94l23 -192v-288z" glyph-name="exclamdown" unicode="¡" horiz-adv-x="340"/>
<glyph d="M501 200c-40 -54 -87 -96 -156 -111v-100h-135v106c-99 33 -170 131 -170 261c0 129 68 227 170 261v83h135v-75c70 -14 119 -57 155 -111l-91 -86c-31 44 -64 75 -120 75c-66 0 -109 -52 -109 -147c0 -92 43 -146 109 -146c54 0 88 24 124 67z" glyph-name="cent" unicode="¢" horiz-adv-x="537"/>
<glyph d="M624 616l-84 -103c-48 43 -111 63 -173 63c-67 0 -101 -26 -101 -68c0 -25 13 -49 25 -70c8 -14 22 -39 27 -55h153v-113h-143c-5 -60 -24 -99 -66 -150h348v-120h-522v102c56 45 89 100 97 168h-97v113h79c-8 16 -19 33 -25 45c-14 26 -29 64 -29 99 c0 118 94 184 256 184c96 0 186 -33 255 -95z" glyph-name="sterling" unicode="£" horiz-adv-x="670"/>
<glyph d="M662 700l-253 -428v-49h163v-118h-163v-105h-134v105h-163v118h163v46l-253 431h161l92 -166c23 -41 58 -110 68 -137c11 27 44 94 68 137l92 166h159z" glyph-name="yen" unicode="¥" horiz-adv-x="684"/>
<glyph d="M645 251c0 -83 -48 -133 -110 -165c14 -23 20 -51 20 -87c0 -92 -72 -163 -208 -163c-81 0 -157 25 -215 68l69 96c50 -35 112 -49 155 -49c53 0 70 20 70 47c0 32 -26 42 -166 88c-132 44 -205 93 -205 210c0 83 48 133 109 165c-13 23 -19 51 -19 87 c0 92 72 163 208 163c81 0 157 -25 215 -68l-69 -96c-50 35 -112 49 -155 49c-53 0 -70 -20 -70 -47c0 -32 26 -42 166 -88c132 -44 205 -93 205 -210zM511 241c0 57 -69 79 -139 103c-48 16 -88 31 -119 46c-42 -18 -64 -44 -64 -84c0 -57 69 -79 139 -103 c48 -16 88 -31 119 -46c42 18 64 44 64 84z" glyph-name="section" unicode="§" horiz-adv-x="700"/>
<glyph d="M780 350l-168 -132c-12 -6 -23 -5 -28 -2c-13 8 -16 18 -12 36l20 45h-141v-124l48 19c15 5 25 2 33 -11c3 -5 5 -16 -3 -28l-129 -168l-132 168c-6 11 -5 23 -2 28c8 12 18 16 35 11l46 -19v124h-139l20 -46c5 -16 1 -27 -12 -35c-5 -3 -16 -4 -27 2l-169 132l169 129 c12 8 22 6 27 3c14 -8 16 -18 12 -33l-20 -48h139v126l-46 -19c-16 -6 -27 -1 -35 11c-3 5 -4 17 2 28l132 168l129 -168c8 -12 6 -23 3 -28c-8 -13 -18 -16 -33 -11l-48 19v-126h141l-20 48c-4 15 -2 25 12 33c5 3 15 5 28 -3z" glyph-name="currency" unicode="¤"/>
<glyph d="M227 700l-35 -327h-100l-35 327h170z" glyph-name="quotesingle" unicode="&apos;" horiz-adv-x="284"/>
<glyph d="M588 0h-143l-163 262l163 263h143l-158 -262zM336 0h-143l-163 262l163 263h143l-158 -262z" glyph-name="guillemotleft" unicode="«" horiz-adv-x="628"/>
<glyph d="M230 367c0 -51 -43 -94 -94 -94s-94 43 -94 94s43 94 94 94s94 -43 94 -94z" glyph-name="periodcentered" unicode="·" horiz-adv-x="272"/>
<glyph d="M635 -185h-114v779h-64v-779h-114v446h-69c-123 0 -227 79 -227 220c0 140 105 219 227 219h361v-885z" glyph-name="paragraph" unicode="¶" horiz-adv-x="724"/>
<glyph d="M598 263l-163 -263h-143l158 262l-158 263h143zM346 263l-163 -263h-143l158 262l-158 263h143z" glyph-name="guillemotright" unicode="»" horiz-adv-x="628"/>
<glyph d="M400 626c0 -46 -39 -85 -85 -85s-85 39 -85 85s39 85 85 85s85 -39 85 -85zM562 105c-61 -64 -148 -116 -265 -116c-153 0 -259 65 -259 204c0 93 53 142 101 165c84 40 105 63 108 122h137c0 -95 -28 -154 -141 -206c-50 -23 -65 -39 -65 -75c0 -46 34 -73 119 -73 c76 0 130 36 175 84z" glyph-name="questiondown" unicode="¿" horiz-adv-x="584"/>
<glyph d="M362 595h-117l-145 160h175z" glyph-name="grave" unicode="`" horiz-adv-x="500"/>
<glyph d="M400 755l-145 -160h-117l87 160h175z" glyph-name="acute" unicode="´" horiz-adv-x="500"/>
<glyph d="M395 610h-290v105h290v-105z" glyph-name="macron" unicode="¯" horiz-adv-x="500"/>
<glyph d="M436 672c0 -41 -36 -77 -77 -77c-43 0 -79 36 -79 77c0 43 36 78 79 78c41 0 77 -35 77 -78zM220 672c0 -41 -36 -77 -78 -77s-78 36 -78 77c0 43 36 78 78 78s78 -35 78 -78z" glyph-name="dieresis" unicode="¨" horiz-adv-x="500"/>
<glyph d="M377 -106c0 -60 -48 -87 -119 -87c-54 0 -99 16 -131 36l21 38c30 -16 63 -24 89 -24c35 0 54 11 54 34c0 20 -15 26 -31 26c-13 0 -20 -2 -30 -7l-36 14l27 113h56l-17 -79c8 4 20 7 39 7c43 0 78 -22 78 -71z" glyph-name="cedilla" unicode="¸" horiz-adv-x="500"/>
<glyph d="M979 0h-475v125h-249l-81 -125h-160l470 700h480v-134h-326v-126h181v-132h-181v-174h341v-134zM506 522c-16 -32 -54 -95 -80 -134l-91 -140h169v128c0 41 2 118 2 146z" glyph-name="AE" unicode="Æ" horiz-adv-x="1038"/>
<glyph d="M415 276h-109v31c-23 -24 -58 -39 -98 -39c-79 0 -159 48 -159 151c0 94 76 141 173 141c39 0 66 -8 84 -17v21c0 31 -22 56 -63 56c-51 0 -78 -7 -118 -29l-42 78c50 27 92 42 160 42c103 0 172 -54 172 -149v-286zM306 401v55c-21 12 -41 17 -80 17 c-43 0 -67 -19 -67 -54c0 -30 18 -59 67 -59c36 0 67 21 80 41z" glyph-name="ordfeminine" unicode="ª" horiz-adv-x="477"/>
<glyph d="M661 350c0 -213 -113 -361 -304 -361c-36 0 -71 7 -103 19l-28 -58h-132l61 124c-63 64 -102 160 -102 276c0 213 113 361 304 361c35 0 68 -6 99 -18l28 57h132l-59 -122c64 -63 104 -161 104 -278zM522 350c0 56 -9 107 -30 147l-180 -370c14 -4 29 -6 45 -6 c116 0 165 100 165 229zM398 574c-13 3 -26 5 -41 5c-116 0 -165 -100 -165 -229c0 -54 9 -104 27 -142z" glyph-name="Oslash" unicode="Ø" horiz-adv-x="714"/>
<glyph d="M438 489c0 -130 -82 -221 -193 -221s-192 91 -192 221s81 222 192 222s193 -92 193 -222zM324 489c0 65 -26 114 -79 114s-79 -48 -79 -114s26 -113 79 -113s79 54 79 113z" glyph-name="ordmasculine" unicode="º" horiz-adv-x="491"/>
<glyph d="M800 262c0 -20 -1 -34 -2 -44h-314c5 -72 58 -99 108 -99c38 0 70 14 90 37l98 -82c-42 -54 -118 -85 -188 -85c-82 0 -144 32 -184 80c-50 -56 -102 -80 -170 -80c-98 0 -196 60 -196 187c0 116 94 174 213 174c48 0 79 -10 101 -21v26c0 37 -25 67 -75 67 c-63 0 -96 -9 -144 -35l-53 96c61 35 112 53 197 53c76 0 122 -21 158 -61c34 37 81 61 140 61c140 0 221 -124 221 -274zM666 322c-4 47 -32 94 -94 94c-50 0 -81 -41 -86 -94h180zM356 154v66c-24 15 -47 22 -96 22c-52 0 -80 -24 -80 -66c0 -37 21 -70 80 -70 c45 0 81 23 96 48z" glyph-name="ae" unicode="æ" horiz-adv-x="843"/>
<glyph d="M515 262c0 -161 -101 -273 -238 -273c-27 0 -53 5 -78 13l-27 -52h-123l60 113c-43 48 -69 117 -69 199c0 161 100 274 237 274c27 0 52 -4 76 -13l27 52h123l-59 -112c45 -49 71 -119 71 -201zM303 419c-8 2 -17 3 -26 3c-73 0 -107 -71 -107 -160c0 -28 3 -53 10 -76z M385 262c0 29 -4 56 -12 80l-124 -235c9 -3 18 -4 28 -4c73 0 108 79 108 159z" glyph-name="oslash" unicode="ø" horiz-adv-x="555"/>
<glyph d="M546 221c0 -144 -79 -221 -243 -221h-22v125h18c67 0 107 28 107 96c0 74 -38 112 -119 112h-6v120h5c41 0 66 28 66 73c0 41 -23 70 -75 70c-58 0 -72 -30 -72 -82v-638l-138 -69v714c0 150 85 205 212 205c118 0 213 -65 213 -185c0 -73 -35 -119 -93 -139 c75 -15 147 -66 147 -181z" glyph-name="germandbls" unicode="ß" horiz-adv-x="586"/>
<glyph d="M672 350c0 -246 -178 -350 -358 -350h-209v308h-65v115h65v277h219c200 0 348 -94 348 -350zM528 350c0 143 -61 214 -209 214h-78v-141h94v-115h-94v-172h73c147 0 214 86 214 214z" glyph-name="Eth" unicode="Ð" horiz-adv-x="722"/>
<glyph d="M515 282c0 -200 -101 -293 -238 -293s-237 98 -237 243s99 244 217 244c50 0 88 -13 124 -38c-10 45 -33 82 -65 111l-47 -46l-64 57l36 35c-27 11 -56 19 -87 21v95c64 -2 118 -16 164 -40l41 40l64 -57l-34 -33c88 -81 126 -208 126 -339zM380 232 c0 71 -34 123 -103 123s-102 -51 -102 -123s33 -121 102 -121s103 56 103 121z" glyph-name="eth" unicode="ð" horiz-adv-x="555"/>
<glyph d="M692 700l-265 -423v-277h-140v274l-265 426h161l99 -166c25 -42 63 -111 76 -137c13 26 50 93 76 137l99 166h159zM539 895l-145 -160h-117l87 160h175z" glyph-name="Yacute" unicode="Ý" horiz-adv-x="714"/>
<glyph d="M565 525l-270 -710h-136l70 185l-204 525h152l86 -253c14 -40 28 -90 34 -115c6 26 20 74 34 115l86 253h148zM475 745l-145 -160h-117l87 160h175z" glyph-name="yacute" unicode="ý" horiz-adv-x="590"/>
<glyph d="M637 370c0 -162 -108 -230 -253 -230h-154v-140h-140v700h140v-108h166c132 0 241 -73 241 -222zM493 367c0 61 -40 89 -102 89h-161v-180h163c65 0 100 30 100 91z" glyph-name="Thorn" unicode="Þ" horiz-adv-x="680"/>
<glyph d="M520 256c0 -157 -74 -267 -204 -267c-46 0 -86 18 -111 41v-154l-138 -69v853l138 69v-237c26 23 61 44 111 44c112 0 204 -84 204 -280zM380 253c0 108 -36 153 -90 153c-43 0 -65 -18 -85 -44v-198c21 -29 53 -45 93 -45c53 0 82 46 82 134z" glyph-name="thorn" unicode="þ" horiz-adv-x="562"/>
<glyph d="M780 350l-168 -132c-12 -6 -23 -5 -28 -2c-13 8 -16 18 -12 36l20 45h-141v-124l48 19c15 5 25 2 33 -11c3 -5 5 -16 -3 -28l-129 -168l-132 168c-6 11 -5 23 -2 28c8 12 18 16 35 11l46 -19v124h-139l20 -46c5 -16 1 -27 -12 -35c-5 -3 -16 -4 -27 2l-169 132l169 129 c12 8 22 6 27 3c14 -8 16 -18 12 -33l-20 -48h139v126l-46 -19c-16 -6 -27 -1 -35 11c-3 5 -4 17 2 28l132 168l129 -168c8 -12 6 -23 3 -28c-8 -13 -18 -16 -33 -11l-48 19v-126h141l-20 48c-4 15 -2 25 12 33c5 3 15 5 28 -3z" glyph-name="onehalf" unicode="½"/>
<glyph d="M780 350l-168 -132c-12 -6 -23 -5 -28 -2c-13 8 -16 18 -12 36l20 45h-141v-124l48 19c15 5 25 2 33 -11c3 -5 5 -16 -3 -28l-129 -168l-132 168c-6 11 -5 23 -2 28c8 12 18 16 35 11l46 -19v124h-139l20 -46c5 -16 1 -27 -12 -35c-5 -3 -16 -4 -27 2l-169 132l169 129 c12 8 22 6 27 3c14 -8 16 -18 12 -33l-20 -48h139v126l-46 -19c-16 -6 -27 -1 -35 11c-3 5 -4 17 2 28l132 168l129 -168c8 -12 6 -23 3 -28c-8 -13 -18 -16 -33 -11l-48 19v-126h141l-20 48c-4 15 -2 25 12 33c5 3 15 5 28 -3z" glyph-name="onequarter" unicode="¼"/>
<glyph d="M780 350l-168 -132c-12 -6 -23 -5 -28 -2c-13 8 -16 18 -12 36l20 45h-141v-124l48 19c15 5 25 2 33 -11c3 -5 5 -16 -3 -28l-129 -168l-132 168c-6 11 -5 23 -2 28c8 12 18 16 35 11l46 -19v124h-139l20 -46c5 -16 1 -27 -12 -35c-5 -3 -16 -4 -27 2l-169 132l169 129 c12 8 22 6 27 3c14 -8 16 -18 12 -33l-20 -48h139v126l-46 -19c-16 -6 -27 -1 -35 11c-3 5 -4 17 2 28l132 168l129 -168c8 -12 6 -23 3 -28c-8 -13 -18 -16 -33 -11l-48 19v-126h141l-20 48c-4 15 -2 25 12 33c5 3 15 5 28 -3z" glyph-name="onesuperior" unicode="¹"/>
<glyph d="M780 350l-168 -132c-12 -6 -23 -5 -28 -2c-13 8 -16 18 -12 36l20 45h-141v-124l48 19c15 5 25 2 33 -11c3 -5 5 -16 -3 -28l-129 -168l-132 168c-6 11 -5 23 -2 28c8 12 18 16 35 11l46 -19v124h-139l20 -46c5 -16 1 -27 -12 -35c-5 -3 -16 -4 -27 2l-169 132l169 129 c12 8 22 6 27 3c14 -8 16 -18 12 -33l-20 -48h139v126l-46 -19c-16 -6 -27 -1 -35 11c-3 5 -4 17 2 28l132 168l129 -168c8 -12 6 -23 3 -28c-8 -13 -18 -16 -33 -11l-48 19v-126h141l-20 48c-4 15 -2 25 12 33c5 3 15 5 28 -3z" glyph-name="threequarters" unicode="¾"/>
<glyph d="M780 350l-168 -132c-12 -6 -23 -5 -28 -2c-13 8 -16 18 -12 36l20 45h-141v-124l48 19c15 5 25 2 33 -11c3 -5 5 -16 -3 -28l-129 -168l-132 168c-6 11 -5 23 -2 28c8 12 18 16 35 11l46 -19v124h-139l20 -46c5 -16 1 -27 -12 -35c-5 -3 -16 -4 -27 2l-169 132l169 129 c12 8 22 6 27 3c14 -8 16 -18 12 -33l-20 -48h139v126l-46 -19c-16 -6 -27 -1 -35 11c-3 5 -4 17 2 28l132 168l129 -168c8 -12 6 -23 3 -28c-8 -13 -18 -16 -33 -11l-48 19v-126h141l-20 48c-4 15 -2 25 12 33c5 3 15 5 28 -3z" glyph-name="threesuperior" unicode="³"/>
<glyph d="M780 350l-168 -132c-12 -6 -23 -5 -28 -2c-13 8 -16 18 -12 36l20 45h-141v-124l48 19c15 5 25 2 33 -11c3 -5 5 -16 -3 -28l-129 -168l-132 168c-6 11 -5 23 -2 28c8 12 18 16 35 11l46 -19v124h-139l20 -46c5 -16 1 -27 -12 -35c-5 -3 -16 -4 -27 2l-169 132l169 129 c12 8 22 6 27 3c14 -8 16 -18 12 -33l-20 -48h139v126l-46 -19c-16 -6 -27 -1 -35 11c-3 5 -4 17 2 28l132 168l129 -168c8 -12 6 -23 3 -28c-8 -13 -18 -16 -33 -11l-48 19v-126h141l-20 48c-4 15 -2 25 12 33c5 3 15 5 28 -3z" glyph-name="twosuperior" unicode="²"/>
<glyph d="M780 350l-168 -132c-12 -6 -23 -5 -28 -2c-13 8 -16 18 -12 36l20 45h-141v-124l48 19c15 5 25 2 33 -11c3 -5 5 -16 -3 -28l-129 -168l-132 168c-6 11 -5 23 -2 28c8 12 18 16 35 11l46 -19v124h-139l20 -46c5 -16 1 -27 -12 -35c-5 -3 -16 -4 -27 2l-169 132l169 129 c12 8 22 6 27 3c14 -8 16 -18 12 -33l-20 -48h139v126l-46 -19c-16 -6 -27 -1 -35 11c-3 5 -4 17 2 28l132 168l129 -168c8 -12 6 -23 3 -28c-8 -13 -18 -16 -33 -11l-48 19v-126h141l-20 48c-4 15 -2 25 12 33c5 3 15 5 28 -3z" glyph-name="brokenbar" unicode="¦"/>
<glyph d="M780 350l-168 -132c-12 -6 -23 -5 -28 -2c-13 8 -16 18 -12 36l20 45h-141v-124l48 19c15 5 25 2 33 -11c3 -5 5 -16 -3 -28l-129 -168l-132 168c-6 11 -5 23 -2 28c8 12 18 16 35 11l46 -19v124h-139l20 -46c5 -16 1 -27 -12 -35c-5 -3 -16 -4 -27 2l-169 132l169 129 c12 8 22 6 27 3c14 -8 16 -18 12 -33l-20 -48h139v126l-46 -19c-16 -6 -27 -1 -35 11c-3 5 -4 17 2 28l132 168l129 -168c8 -12 6 -23 3 -28c-8 -13 -18 -16 -33 -11l-48 19v-126h141l-20 48c-4 15 -2 25 12 33c5 3 15 5 28 -3z" glyph-name="multiply" unicode="×"/>
<glyph d="M710 0h-154l-55 156h-256l-55 -156h-150l268 700h136zM453 289l-45 127c-14 41 -28 83 -35 109c-7 -26 -21 -68 -35 -109l-45 -127h160zM560 822c0 -41 -36 -77 -77 -77c-43 0 -79 36 -79 77c0 43 36 78 79 78c41 0 77 -35 77 -78zM344 822c0 -41 -36 -77 -78 -77 s-78 36 -78 77c0 43 36 78 78 78s78 -35 78 -78z" glyph-name="Adieresis" unicode="Ä" horiz-adv-x="750"/>
<glyph d="M710 0h-154l-55 156h-256l-55 -156h-150l246 643c-28 24 -45 60 -45 102c0 77 58 135 135 135s135 -58 135 -135c0 -42 -17 -78 -46 -102zM435 745c0 34 -26 60 -59 60s-59 -26 -59 -60s26 -60 59 -60s59 26 59 60zM453 289l-45 127c-14 41 -28 83 -35 109 c-7 -26 -21 -68 -35 -109l-45 -127h160z" glyph-name="Aring" unicode="Å" horiz-adv-x="750"/>
<glyph d="M620 556l-130 -60c-25 48 -65 76 -128 76c-105 0 -165 -92 -165 -222c0 -126 61 -222 166 -222c63 0 100 27 137 89l118 -70c-47 -97 -129 -156 -251 -158l-7 -31c8 4 20 7 39 7c43 0 78 -22 78 -71c0 -60 -48 -87 -119 -87c-54 0 -99 16 -131 36l21 38 c30 -16 63 -24 89 -24c35 0 54 11 54 34c0 20 -15 26 -31 26c-13 0 -20 -2 -30 -7l-36 14l16 68c-155 23 -257 157 -257 358c0 213 128 361 311 361c132 0 212 -64 256 -155z" glyph-name="Ccedilla" unicode="Ç" horiz-adv-x="670"/>
<glyph d="M591 0h-501v700h486v-137h-346v-121h201v-136h-201v-169h361v-137zM517 905l-145 -160h-117l87 160h175z" glyph-name="Eacute" unicode="É" horiz-adv-x="650"/>
<glyph d="M657 0h-125l-257 382c-17 26 -40 61 -49 79c0 -26 2 -114 2 -153v-308h-138v700h134l248 -370c17 -26 40 -61 49 -79c0 26 -2 114 -2 153v296h138v-700zM573 886c0 -89 -47 -144 -115 -144c-42 0 -61 8 -101 31c-30 17 -39 20 -52 20c-19 0 -28 -13 -34 -48h-90 c0 89 47 144 115 144c42 0 61 -8 101 -31c30 -17 39 -20 52 -20c19 0 28 13 34 48h90z" glyph-name="Ntilde" unicode="Ñ" horiz-adv-x="747"/>
<glyph d="M661 350c0 -213 -113 -361 -304 -361s-304 148 -304 361s113 361 304 361s304 -148 304 -361zM517 350c0 125 -47 222 -160 222s-160 -97 -160 -222s47 -222 160 -222s160 97 160 222zM541 822c0 -41 -36 -77 -77 -77c-43 0 -79 36 -79 77c0 43 36 78 79 78 c41 0 77 -35 77 -78zM325 822c0 -41 -36 -77 -78 -77s-78 36 -78 77c0 43 36 78 78 78s78 -35 78 -78z" glyph-name="Odieresis" unicode="Ö" horiz-adv-x="714"/>
<glyph d="M652 309c0 -203 -106 -320 -284 -320c-169 0 -283 114 -283 318v393h140v-391c0 -112 54 -183 143 -183s144 69 144 181v393h140v-391zM555 822c0 -41 -36 -77 -77 -77c-43 0 -79 36 -79 77c0 43 36 78 79 78c41 0 77 -35 77 -78zM339 822c0 -41 -36 -77 -78 -77 s-78 36 -78 77c0 43 36 78 78 78s78 -35 78 -78z" glyph-name="Udieresis" unicode="Ü" horiz-adv-x="737"/>
<glyph d="M494 0h-138v35c-25 -26 -69 -46 -118 -46c-98 0 -196 60 -196 187c0 116 94 174 213 174c48 0 79 -10 101 -21v26c0 37 -25 67 -75 67c-63 0 -96 -9 -144 -35l-53 96c61 35 112 53 197 53c127 0 213 -66 213 -184v-352zM356 154v66c-24 15 -47 22 -96 22 c-52 0 -80 -24 -80 -66c0 -37 21 -70 80 -70c45 0 81 23 96 48zM459 755l-145 -160h-117l87 160h175z" glyph-name="aacute" unicode="á" horiz-adv-x="556"/>
<glyph d="M494 0h-138v35c-25 -26 -69 -46 -118 -46c-98 0 -196 60 -196 187c0 116 94 174 213 174c48 0 79 -10 101 -21v26c0 37 -25 67 -75 67c-63 0 -96 -9 -144 -35l-53 96c61 35 112 53 197 53c127 0 213 -66 213 -184v-352zM356 154v66c-24 15 -47 22 -96 22 c-52 0 -80 -24 -80 -66c0 -37 21 -70 80 -70c45 0 81 23 96 48zM351 595h-117l-145 160h175z" glyph-name="agrave" unicode="à" horiz-adv-x="556"/>
<glyph d="M494 0h-138v35c-25 -26 -69 -46 -118 -46c-98 0 -196 60 -196 187c0 116 94 174 213 174c48 0 79 -10 101 -21v26c0 37 -25 67 -75 67c-63 0 -96 -9 -144 -35l-53 96c61 35 112 53 197 53c127 0 213 -66 213 -184v-352zM356 154v66c-24 15 -47 22 -96 22 c-52 0 -80 -24 -80 -66c0 -37 21 -70 80 -70c45 0 81 23 96 48zM470 590h-93l-100 75l-100 -75h-91l122 160h140z" glyph-name="acircumflex" unicode="â" horiz-adv-x="556"/>
<glyph d="M494 0h-138v35c-25 -26 -69 -46 -118 -46c-98 0 -196 60 -196 187c0 116 94 174 213 174c48 0 79 -10 101 -21v26c0 37 -25 67 -75 67c-63 0 -96 -9 -144 -35l-53 96c61 35 112 53 197 53c127 0 213 -66 213 -184v-352zM356 154v66c-24 15 -47 22 -96 22 c-52 0 -80 -24 -80 -66c0 -37 21 -70 80 -70c45 0 81 23 96 48zM464 667c0 -41 -36 -77 -77 -77c-43 0 -79 36 -79 77c0 43 36 78 79 78c41 0 77 -35 77 -78zM248 667c0 -41 -36 -77 -78 -77s-78 36 -78 77c0 43 36 78 78 78s78 -35 78 -78z" glyph-name="adieresis" unicode="ä" horiz-adv-x="556"/>
<glyph d="M494 0h-138v35c-25 -26 -69 -46 -118 -46c-98 0 -196 60 -196 187c0 116 94 174 213 174c48 0 79 -10 101 -21v26c0 37 -25 67 -75 67c-63 0 -96 -9 -144 -35l-53 96c61 35 112 53 197 53c127 0 213 -66 213 -184v-352zM356 154v66c-24 15 -47 22 -96 22 c-52 0 -80 -24 -80 -66c0 -37 21 -70 80 -70c45 0 81 23 96 48zM477 736c0 -89 -47 -144 -115 -144c-42 0 -61 8 -101 31c-30 17 -39 20 -52 20c-19 0 -28 -13 -34 -48h-90c0 89 47 144 115 144c42 0 61 -8 101 -31c30 -17 39 -20 52 -20c19 0 28 13 34 48h90z" glyph-name="atilde" unicode="ã" horiz-adv-x="556"/>
<glyph d="M494 0h-138v35c-25 -26 -69 -46 -118 -46c-98 0 -196 60 -196 187c0 116 94 174 213 174c48 0 79 -10 101 -21v26c0 37 -25 67 -75 67c-63 0 -96 -9 -144 -35l-53 96c61 35 112 53 197 53c127 0 213 -66 213 -184v-352zM356 154v66c-24 15 -47 22 -96 22 c-52 0 -80 -24 -80 -66c0 -37 21 -70 80 -70c45 0 81 23 96 48zM413 728c0 -77 -58 -133 -135 -133s-135 56 -135 133s58 135 135 135s135 -58 135 -135zM337 728c0 34 -26 60 -59 60s-59 -26 -59 -60s26 -60 59 -60s59 26 59 60z" glyph-name="aring" unicode="å" horiz-adv-x="556"/>
<glyph d="M501 106c-48 -64 -104 -112 -198 -117l-7 -31c8 4 20 7 39 7c43 0 78 -22 78 -71c0 -60 -48 -87 -119 -87c-54 0 -99 16 -131 36l21 38c30 -16 63 -24 89 -24c35 0 54 11 54 34c0 20 -15 26 -31 26c-13 0 -20 -2 -30 -7l-36 14l16 68c-118 20 -206 125 -206 270 c0 161 106 274 252 274c100 0 164 -49 208 -116l-91 -92c-31 44 -64 75 -120 75c-66 0 -109 -55 -109 -141c0 -84 43 -140 109 -140c54 0 88 24 124 67z" glyph-name="ccedilla" unicode="ç" horiz-adv-x="537"/>
<glyph d="M495 262c0 -20 -1 -34 -2 -44h-314c5 -72 58 -99 108 -99c38 0 70 14 90 37l98 -82c-42 -54 -118 -85 -188 -85c-151 0 -247 107 -247 273c0 161 101 274 234 274c140 0 221 -124 221 -274zM361 322c-4 47 -32 94 -94 94c-50 0 -81 -41 -86 -94h180zM454 755l-145 -160 h-117l87 160h175z" glyph-name="eacute" unicode="é" horiz-adv-x="538"/>
<glyph d="M495 262c0 -20 -1 -34 -2 -44h-314c5 -72 58 -99 108 -99c38 0 70 14 90 37l98 -82c-42 -54 -118 -85 -188 -85c-151 0 -247 107 -247 273c0 161 101 274 234 274c140 0 221 -124 221 -274zM361 322c-4 47 -32 94 -94 94c-50 0 -81 -41 -86 -94h180zM346 595h-117 l-145 160h175z" glyph-name="egrave" unicode="è" horiz-adv-x="538"/>
<glyph d="M495 262c0 -20 -1 -34 -2 -44h-314c5 -72 58 -99 108 -99c38 0 70 14 90 37l98 -82c-42 -54 -118 -85 -188 -85c-151 0 -247 107 -247 273c0 161 101 274 234 274c140 0 221 -124 221 -274zM361 322c-4 47 -32 94 -94 94c-50 0 -81 -41 -86 -94h180zM465 585h-93l-100 75 l-100 -75h-91l122 160h140z" glyph-name="ecircumflex" unicode="ê" horiz-adv-x="538"/>
<glyph d="M495 262c0 -20 -1 -34 -2 -44h-314c5 -72 58 -99 108 -99c38 0 70 14 90 37l98 -82c-42 -54 -118 -85 -188 -85c-151 0 -247 107 -247 273c0 161 101 274 234 274c140 0 221 -124 221 -274zM361 322c-4 47 -32 94 -94 94c-50 0 -81 -41 -86 -94h180zM459 667 c0 -41 -36 -77 -77 -77c-43 0 -79 36 -79 77c0 43 36 78 79 78c41 0 77 -35 77 -78zM243 667c0 -41 -36 -77 -78 -77s-78 36 -78 77c0 43 36 78 78 78s78 -35 78 -78z" glyph-name="edieresis" unicode="ë" horiz-adv-x="538"/>
<glyph d="M210 0h-138v525h138v-525zM337 755l-145 -160h-117l87 160h175z" glyph-name="iacute" unicode="í" horiz-adv-x="282"/>
<glyph d="M210 0h-138v525h138v-525zM206 595h-117l-145 160h175z" glyph-name="igrave" unicode="ì" horiz-adv-x="282"/>
<glyph d="M210 0h-138v525h138v-525zM333 580h-93l-100 75l-100 -75h-91l122 160h140z" glyph-name="icircumflex" unicode="î" horiz-adv-x="282"/>
<glyph d="M210 0h-138v525h138v-525zM327 662c0 -41 -36 -77 -77 -77c-43 0 -79 36 -79 77c0 43 36 78 79 78c41 0 77 -35 77 -78zM111 662c0 -41 -36 -77 -78 -77s-78 36 -78 77c0 43 36 78 78 78s78 -35 78 -78z" glyph-name="idieresis" unicode="ï" horiz-adv-x="282"/>
<glyph d="M522 0h-138v284c0 94 -32 122 -89 122s-90 -28 -90 -119v-287h-138v525h138v-35c24 25 68 46 123 46c134 0 194 -92 194 -240v-296zM489 736c0 -89 -47 -144 -115 -144c-42 0 -61 8 -101 31c-30 17 -39 20 -52 20c-19 0 -28 -13 -34 -48h-90c0 89 47 144 115 144 c42 0 61 -8 101 -31c30 -17 39 -20 52 -20c19 0 28 13 34 48h90z" glyph-name="ntilde" unicode="ñ" horiz-adv-x="584"/>
<glyph d="M515 262c0 -161 -101 -273 -238 -273s-237 112 -237 273s100 274 237 274s238 -113 238 -274zM375 262c0 80 -32 141 -98 141s-97 -60 -97 -141s31 -140 97 -140s98 67 98 140zM458 755l-145 -160h-117l87 160h175z" glyph-name="oacute" unicode="ó" horiz-adv-x="555"/>
<glyph d="M515 262c0 -161 -101 -273 -238 -273s-237 112 -237 273s100 274 237 274s238 -113 238 -274zM375 262c0 80 -32 141 -98 141s-97 -60 -97 -141s31 -140 97 -140s98 67 98 140zM350 595h-117l-145 160h175z" glyph-name="ograve" unicode="ò" horiz-adv-x="555"/>
<glyph d="M515 262c0 -161 -101 -273 -238 -273s-237 112 -237 273s100 274 237 274s238 -113 238 -274zM375 262c0 80 -32 141 -98 141s-97 -60 -97 -141s31 -140 97 -140s98 67 98 140zM469 585h-93l-100 75l-100 -75h-91l122 160h140z" glyph-name="ocircumflex" unicode="ô" horiz-adv-x="555"/>
<glyph d="M515 262c0 -161 -101 -273 -238 -273s-237 112 -237 273s100 274 237 274s238 -113 238 -274zM375 262c0 80 -32 141 -98 141s-97 -60 -97 -141s31 -140 97 -140s98 67 98 140zM463 662c0 -41 -36 -77 -77 -77c-43 0 -79 36 -79 77c0 43 36 78 79 78c41 0 77 -35 77 -78z M247 662c0 -41 -36 -77 -78 -77s-78 36 -78 77c0 43 36 78 78 78s78 -35 78 -78z" glyph-name="odieresis" unicode="ö" horiz-adv-x="555"/>
<glyph d="M515 262c0 -161 -101 -273 -238 -273s-237 112 -237 273s100 274 237 274s238 -113 238 -274zM375 262c0 80 -32 141 -98 141s-97 -60 -97 -141s31 -140 97 -140s98 67 98 140zM472 736c0 -89 -47 -144 -115 -144c-42 0 -61 8 -101 31c-30 17 -39 20 -52 20 c-19 0 -28 -13 -34 -48h-90c0 89 47 144 115 144c42 0 61 -8 101 -31c30 -17 39 -20 52 -20c19 0 28 13 34 48h90z" glyph-name="otilde" unicode="õ" horiz-adv-x="555"/>
<glyph d="M517 0h-138v35c-24 -25 -68 -46 -123 -46c-134 0 -194 92 -194 240v296h138v-284c0 -94 32 -122 89 -122s90 28 90 119v287h138v-525zM471 755l-145 -160h-117l87 160h175z" glyph-name="uacute" unicode="ú" horiz-adv-x="584"/>
<glyph d="M517 0h-138v35c-24 -25 -68 -46 -123 -46c-134 0 -194 92 -194 240v296h138v-284c0 -94 32 -122 89 -122s90 28 90 119v287h138v-525zM363 595h-117l-145 160h175z" glyph-name="ugrave" unicode="ù" horiz-adv-x="584"/>
<glyph d="M517 0h-138v35c-24 -25 -68 -46 -123 -46c-134 0 -194 92 -194 240v296h138v-284c0 -94 32 -122 89 -122s90 28 90 119v287h138v-525zM482 595h-93l-100 75l-100 -75h-91l122 160h140z" glyph-name="ucircumflex" unicode="û" horiz-adv-x="584"/>
<glyph d="M517 0h-138v35c-24 -25 -68 -46 -123 -46c-134 0 -194 92 -194 240v296h138v-284c0 -94 32 -122 89 -122s90 28 90 119v287h138v-525zM476 672c0 -41 -36 -77 -77 -77c-43 0 -79 36 -79 77c0 43 36 78 79 78c41 0 77 -35 77 -78zM260 672c0 -41 -36 -77 -78 -77 s-78 36 -78 77c0 43 36 78 78 78s78 -35 78 -78z" glyph-name="udieresis" unicode="ü" horiz-adv-x="584"/>
<glyph d="M441 514c0 -113 -86 -199 -198 -199c-111 0 -198 86 -198 199c0 110 87 197 198 197c112 0 198 -87 198 -197zM336 514c0 51 -40 93 -93 93c-52 0 -93 -42 -93 -93c0 -54 41 -95 93 -95c53 0 93 41 93 95z" glyph-name="degree" unicode="°" horiz-adv-x="486"/>
<glyph d="M779 350c0 -205 -156 -361 -361 -361s-361 156 -361 361s156 361 361 361s361 -156 361 -361zM715 350c0 169 -128 297 -297 297s-297 -128 -297 -297s128 -297 297 -297s297 128 297 297zM590 430c0 -68 -36 -99 -78 -115l76 -155h-94l-71 144h-68v-144h-83v394h183 c76 0 135 -40 135 -124zM505 428c0 35 -21 50 -56 50h-94v-101h94c36 0 56 18 56 51z" glyph-name="registered" unicode="®" horiz-adv-x="836"/>
<glyph d="M779 350c0 -205 -156 -361 -361 -361s-361 156 -361 361s156 361 361 361s361 -156 361 -361zM715 350c0 169 -128 297 -297 297s-297 -128 -297 -297s128 -297 297 -297s297 128 297 297zM568 469l-79 -44c-16 28 -35 44 -66 44c-51 0 -79 -41 -79 -117 c0 -74 30 -116 80 -116c29 0 50 18 71 51l70 -48c-33 -57 -73 -90 -143 -90c-103 0 -172 79 -172 203c0 119 72 204 174 204c74 0 119 -36 144 -87z" glyph-name="copyright" unicode="©" horiz-adv-x="836"/>
<glyph d="M780 350l-168 -132c-12 -6 -23 -5 -28 -2c-13 8 -16 18 -12 36l20 45h-141v-124l48 19c15 5 25 2 33 -11c3 -5 5 -16 -3 -28l-129 -168l-132 168c-6 11 -5 23 -2 28c8 12 18 16 35 11l46 -19v124h-139l20 -46c5 -16 1 -27 -12 -35c-5 -3 -16 -4 -27 2l-169 132l169 129 c12 8 22 6 27 3c14 -8 16 -18 12 -33l-20 -48h139v126l-46 -19c-16 -6 -27 -1 -35 11c-3 5 -4 17 2 28l132 168l129 -168c8 -12 6 -23 3 -28c-8 -13 -18 -16 -33 -11l-48 19v-126h141l-20 48c-4 15 -2 25 12 33c5 3 15 5 28 -3z" glyph-name="plusminus" unicode="±"/>
<glyph d="M780 347l-203 -153c-15 -9 -29 -7 -36 -2c-14 10 -19 22 -13 42l14 47h-284l14 -49c6 -19 2 -30 -13 -40c-7 -5 -21 -8 -36 3l-203 150l203 153c15 9 29 7 36 2c14 -10 19 -22 13 -42l-14 -47h284l-14 49c-6 19 -2 30 13 40c7 5 21 8 36 -3z" glyph-name="mu" unicode="µ"/>
<glyph d="M630 347l-203 -153c-15 -9 -29 -7 -36 -2c-14 10 -19 22 -13 42l14 47h-347v130h347l-14 49c-6 19 -2 30 13 40c7 5 21 8 36 -3z" glyph-name="logicalnot" unicode="¬" horiz-adv-x="650"/>
<glyph glyph-name="nbspace" unicode=" " horiz-adv-x="145"/>
<glyph d="M710 0h-154l-55 156h-256l-55 -156h-150l268 700h136zM453 289l-45 127c-14 41 -28 83 -35 109c-7 -26 -21 -68 -35 -109l-45 -127h160zM447 745h-117l-145 160h175z" glyph-name="Agrave" unicode="À" horiz-adv-x="750"/>
<glyph d="M710 0h-154l-55 156h-256l-55 -156h-150l268 700h136zM453 289l-45 127c-14 41 -28 83 -35 109c-7 -26 -21 -68 -35 -109l-45 -127h160zM573 886c0 -89 -47 -144 -115 -144c-42 0 -61 8 -101 31c-30 17 -39 20 -52 20c-19 0 -28 -13 -34 -48h-90c0 89 47 144 115 144 c42 0 61 -8 101 -31c30 -17 39 -20 52 -20c19 0 28 13 34 48h90z" glyph-name="Atilde" unicode="Ã" horiz-adv-x="750"/>
<glyph d="M661 350c0 -213 -113 -361 -304 -361s-304 148 -304 361s113 361 304 361s304 -148 304 -361zM517 350c0 125 -47 222 -160 222s-160 -97 -160 -222s47 -222 160 -222s160 97 160 222zM554 886c0 -89 -47 -144 -115 -144c-42 0 -61 8 -101 31c-30 17 -39 20 -52 20 c-19 0 -28 -13 -34 -48h-90c0 89 47 144 115 144c42 0 61 -8 101 -31c30 -17 39 -20 52 -20c19 0 28 13 34 48h90z" glyph-name="Otilde" unicode="Õ" horiz-adv-x="714"/>
<glyph d="M780 350l-168 -132c-12 -6 -23 -5 -28 -2c-13 8 -16 18 -12 36l20 45h-141v-124l48 19c15 5 25 2 33 -11c3 -5 5 -16 -3 -28l-129 -168l-132 168c-6 11 -5 23 -2 28c8 12 18 16 35 11l46 -19v124h-139l20 -46c5 -16 1 -27 -12 -35c-5 -3 -16 -4 -27 2l-169 132l169 129 c12 8 22 6 27 3c14 -8 16 -18 12 -33l-20 -48h139v126l-46 -19c-16 -6 -27 -1 -35 11c-3 5 -4 17 2 28l132 168l129 -168c8 -12 6 -23 3 -28c-8 -13 -18 -16 -33 -11l-48 19v-126h141l-20 48c-4 15 -2 25 12 33c5 3 15 5 28 -3z" glyph-name="divide" unicode="÷"/>
<glyph d="M710 0h-154l-55 156h-256l-55 -156h-150l268 700h136zM453 289l-45 127c-14 41 -28 83 -35 109c-7 -26 -21 -68 -35 -109l-45 -127h160zM566 745h-93l-100 75l-100 -75h-91l122 160h140z" glyph-name="Acircumflex" unicode="Â" horiz-adv-x="750"/>
<glyph d="M591 0h-501v700h486v-137h-346v-121h201v-136h-201v-169h361v-137zM528 745h-93l-100 75l-100 -75h-91l122 160h140z" glyph-name="Ecircumflex" unicode="Ê" horiz-adv-x="650"/>
<glyph d="M710 0h-154l-55 156h-256l-55 -156h-150l268 700h136zM453 289l-45 127c-14 41 -28 83 -35 109c-7 -26 -21 -68 -35 -109l-45 -127h160zM555 905l-145 -160h-117l87 160h175z" glyph-name="Aacute" unicode="Á" horiz-adv-x="750"/>
<glyph d="M591 0h-501v700h486v-137h-346v-121h201v-136h-201v-169h361v-137zM522 822c0 -41 -36 -77 -77 -77c-43 0 -79 36 -79 77c0 43 36 78 79 78c41 0 77 -35 77 -78zM306 822c0 -41 -36 -77 -78 -77s-78 36 -78 77c0 43 36 78 78 78s78 -35 78 -78z" glyph-name="Edieresis" unicode="Ë" horiz-adv-x="650"/>
<glyph d="M591 0h-501v700h486v-137h-346v-121h201v-136h-201v-169h361v-137zM409 745h-117l-145 160h175z" glyph-name="Egrave" unicode="È" horiz-adv-x="650"/>
<glyph d="M240 0h-140v700h140v-700zM361 905l-145 -160h-117l87 160h175z" glyph-name="Iacute" unicode="Í" horiz-adv-x="340"/>
<glyph d="M240 0h-140v700h140v-700zM362 735h-93l-100 75l-100 -75h-91l122 160h140z" glyph-name="Icircumflex" unicode="Î" horiz-adv-x="340"/>
<glyph d="M240 0h-140v700h140v-700zM356 817c0 -41 -36 -77 -77 -77c-43 0 -79 36 -79 77c0 43 36 78 79 78c41 0 77 -35 77 -78zM140 817c0 -41 -36 -77 -78 -77s-78 36 -78 77c0 43 36 78 78 78s78 -35 78 -78z" glyph-name="Idieresis" unicode="Ï" horiz-adv-x="340"/>
<glyph d="M240 0h-140v700h140v-700zM233 745h-117l-145 160h175z" glyph-name="Igrave" unicode="Ì" horiz-adv-x="340"/>
<glyph d="M661 350c0 -213 -113 -361 -304 -361s-304 148 -304 361s113 361 304 361s304 -148 304 -361zM517 350c0 125 -47 222 -160 222s-160 -97 -160 -222s47 -222 160 -222s160 97 160 222zM536 905l-145 -160h-117l87 160h175z" glyph-name="Oacute" unicode="Ó" horiz-adv-x="714"/>
<glyph d="M661 350c0 -213 -113 -361 -304 -361s-304 148 -304 361s113 361 304 361s304 -148 304 -361zM517 350c0 125 -47 222 -160 222s-160 -97 -160 -222s47 -222 160 -222s160 97 160 222zM547 740h-93l-100 75l-100 -75h-91l122 160h140z" glyph-name="Ocircumflex" unicode="Ô" horiz-adv-x="714"/>
<glyph d="M661 350c0 -213 -113 -361 -304 -361s-304 148 -304 361s113 361 304 361s304 -148 304 -361zM517 350c0 125 -47 222 -160 222s-160 -97 -160 -222s47 -222 160 -222s160 97 160 222zM428 745h-117l-145 160h175z" glyph-name="Ograve" unicode="Ò" horiz-adv-x="714"/>
<glyph d="M652 309c0 -203 -106 -320 -284 -320c-169 0 -283 114 -283 318v393h140v-391c0 -112 54 -183 143 -183s144 69 144 181v393h140v-391zM551 890l-145 -160h-117l87 160h175z" glyph-name="Uacute" unicode="Ú" horiz-adv-x="737"/>
<glyph d="M652 309c0 -203 -106 -320 -284 -320c-169 0 -283 114 -283 318v393h140v-391c0 -112 54 -183 143 -183s144 69 144 181v393h140v-391zM562 745h-93l-100 75l-100 -75h-91l122 160h140z" glyph-name="Ucircumflex" unicode="Û" horiz-adv-x="737"/>
<glyph d="M652 309c0 -203 -106 -320 -284 -320c-169 0 -283 114 -283 318v393h140v-391c0 -112 54 -183 143 -183s144 69 144 181v393h140v-391zM443 730h-117l-145 160h175z" glyph-name="Ugrave" unicode="Ù" horiz-adv-x="737"/>
</font>
</defs>
</svg>
